ahb_master/tmp/ahb_master.vcd
$date
	Sun Mar 24 00:25:08 2019
$end
$version
	Icarus Verilog
$end
$timescale
	1s
$end
$scope module ahb_master_test $end
$var wire 2 ! i_hresp [1:0] $end
$var wire 1 " o_next $end
$var wire 1 # o_hwrite $end
$var wire 32 $ o_hwdata [31:0] $end
$var wire 2 % o_htrans [1:0] $end
$var wire 3 & o_hsize [2:0] $end
$var wire 1 ' o_hbusreq $end
$var wire 3 ( o_hburst [2:0] $end
$var wire 32 ) o_haddr [31:0] $end
$var wire 1 * o_dav $end
$var wire 32 + o_data [31:0] $end
$var wire 32 , o_addr [31:0] $end
$var wire 1 - i_hready $end
$var wire 32 . i_hrdata [31:0] $end
$var wire 32 / hwdata1 [31:0] $end
$var wire 32 0 hwdata0 [31:0] $end
$var reg 32 1 i_data [31:0] $end
$var reg 1 2 i_hgrant $end
$var reg 32 3 dat [31:0] $end
$var reg 1 4 dav $end
$var reg 32 5 i_addr [31:0] $end
$var reg 1 6 i_cont $end
$var reg 1 7 i_dav $end
$var reg 1 8 i_hclk $end
$var reg 1 9 i_hreset_n $end
$var reg 32 : i_min_len [31:0] $end
$var reg 1 ; i_rd $end
$var reg 3 < i_size [2:0] $end
$var reg 1 = i_wr $end
$scope module U_AHB_MASTER $end
$var wire 32 > i_addr [31:0] $end
$var wire 1 6 i_cont $end
$var wire 32 ? i_data [31:0] $end
$var wire 1 7 i_dav $end
$var wire 1 8 i_hclk $end
$var wire 1 2 i_hgrant $end
$var wire 1 9 i_hreset_n $end
$var wire 2 @ i_hresp [1:0] $end
$var wire 32 A i_min_len [31:0] $end
$var wire 1 ; i_rd $end
$var wire 3 B i_size [2:0] $end
$var wire 1 = i_wr $end
$var wire 1 C rd_wr $end
$var wire 1 D spl_ret_cyc_1 $end
$var wire 1 - i_hready $end
$var wire 32 E i_hrdata [31:0] $end
$var wire 32 F beat_ctr_nxt [31:0] $end
$var wire 1 G b1k_spec $end
$var reg 2048 H HBURST [2047:0] $end
$var reg 2048 I HRESP [2047:0] $end
$var reg 2048 J HSIZE [2047:0] $end
$var reg 2048 K HTRANS [2047:0] $end
$var reg 32 L beat [31:0] $end
$var reg 32 M beat_ctr [31:0] $end
$var reg 5 N burst_ctr [4:0] $end
$var reg 2 O gnt [1:0] $end
$var reg 3 P hburst [2:0] $end
$var reg 2 Q hwrite [1:0] $end
$var reg 32 R o_addr [31:0] $end
$var reg 32 S o_data [31:0] $end
$var reg 1 * o_dav $end
$var reg 32 T o_haddr [31:0] $end
$var reg 3 U o_hburst [2:0] $end
$var reg 1 ' o_hbusreq $end
$var reg 3 V o_hsize [2:0] $end
$var reg 2 W o_htrans [1:0] $end
$var reg 32 X o_hwdata [31:0] $end
$var reg 1 # o_hwrite $end
$var reg 1 " o_next $end
$var reg 1 Y pend_split $end
$scope function compute_burst_ctr $end
$var reg 32 Z addr [31:0] $end
$var reg 5 [ compute_burst_ctr [4:0] $end
$var reg 3 \ sz [2:0] $end
$var reg 32 ] val [31:0] $end
$upscope $end
$scope function compute_hburst $end
$var reg 32 ^ addr [31:0] $end
$var reg 3 _ compute_hburst [2:0] $end
$var reg 3 ` sz [2:0] $end
$var reg 32 a val [31:0] $end
$upscope $end
$scope function no_cross $end
$var reg 32 b addr [31:0] $end
$var reg 1 c no_cross $end
$var reg 3 d sz [2:0] $end
$var reg 32 e val [31:0] $end
$upscope $end
$upscope $end
$scope module U_AHB_SLAVE_SIM_1 $end
$var wire 32 f i_haddr [31:0] $end
$var wire 3 g i_hburst [2:0] $end
$var wire 1 8 i_hclk $end
$var wire 1 h i_hready $end
$var wire 1 9 i_hreset_n $end
$var wire 1 i i_hsel $end
$var wire 2 j i_htrans [1:0] $end
$var wire 32 k i_hwdata [31:0] $end
$var wire 1 # i_hwrite $end
$var wire 2 l o_hresp [1:0] $end
$var reg 32 m addr [31:0] $end
$var reg 32 n o_hrdata [31:0] $end
$var reg 1 - o_hready $end
$var reg 1 o read $end
$var reg 1 p write $end
$upscope $end
$scope begin bk $end
$upscope $end
$scope task d $end
$var integer 32 q x [31:0] $end
$upscope $end
$scope task wait_for_next $end
$upscope $end
$upscope $end
$enddefinitions $end
#0
$dumpvars
b1 q
xp
xo
bx n
bx m
b0 l
bx k
bx j
1i
1h
bx g
bx f
bx e
bx d
xc
bx b
bx a
bx `
bx _
bx ^
bx ]
bx \
bx [
bx Z
xY
bx X
bx W
bx V
bx U
bx T
bx S
bx R
bx Q
bx P
bx O
bx N
bx M
bx L
b11110000101101001011010010110100101101001111110011111100111111001111110011111100101101001011010010110100111110 K
b111100001011010010110100101101001111110011111100111111001111110011111100101101001011010010110100111110 J
b1001111010010110100000101011001 I
b11110000101101001011010010110100101101001111110011111100111111001111110011111100101101001011010010110100111110 H
xG
b0 F
bx E
0D
0C
b0 B
b0 A
b0 @
bx ?
b0 >
0=
b0 <
0;
b0 :
09
08
07
06
b0 5
04
b0 3
12
bx 1
b0x 0
b0x /
bx .
x-
bx ,
bx +
x*
bx )
bx (
x'
bx &
bx %
bx $
x#
x"
b0 !
$end
#10
b1001001010001000100110001000101 K
b0 %
b0 W
b0 j
0"
0p
0o
b0 O
0'
0Y
0*
19
02
18
#20
0-
08
#30
18
#40
1-
08
#50
18
#60
08
#70
18
#80
08
#90
18
#100
08
#110
18
#120
08
#130
18
#140
08
#150
18
#160
0-
08
#170
18
#180
1-
08
#190
18
#200
08
#210
1C
b101001 F
b0 1
b0 ?
17
1=
b101010 :
b101010 A
18
#220
0-
08
#230
1'
18
#240
1-
08
#250
1"
12
18
#260
08
#270
b111000010000100100100101010100 J
b10011100100111101001110010100110100010101010001 K
b10010010100111001000011010100100011000100110110 H
0C
0G
b0 )
b0 T
b0 f
b111 (
b111 U
b111 g
b10 %
b10 W
b10 j
1#
b0 &
b0 V
b101010 F
b101010 M
b10000 N
b111 P
bx1 Q
b1 O
07
16
b10000 [
b101010 ]
b0 Z
b0 \
b111 _
1c
b0 b
b1111 e
b0 d
b101010 a
b0 ^
b0 `
18
#280
08
#290
b1000010010101010101001101011001 K
b0 0
b0 /
b1 )
b1 T
b1 f
b1 %
b1 W
b1 j
b0 $
b0 X
b0 k
b0 m
1p
b11 O
b11 Q
b101010 L
18
#300
08
#310
0p
b0 ,
b0 R
18
#320
08
#330
b101001 F
1C
b1 1
b1 ?
17
b1 3
14
18
#340
0"
0-
08
#350
18
#360
1"
1-
08
#370
b101001 F
b10100110100010101010001 K
0C
b11 %
b11 W
b11 j
b101001 M
b1111 N
b0 1
b0 ?
07
04
18
#380
0"
0-
08
#390
18
#400
08
#410
18
#420
1"
1-
08
#430
b1000010010101010101001101011001 K
b1 0
b10 )
b10 T
b10 f
b1 %
b1 W
b1 j
b1 $
b1 X
b1 k
b1 m
1p
b101001 L
18
#440
08
#450
b101000 F
1C
b0 0
b0 $
b0 X
b0 k
0p
b1 ,
b1 R
b10 1
b10 ?
17
b10 3
14
18
#460
08
#470
b100111 F
b10100110100010101010001 K
b11 %
b11 W
b11 j
b101000 M
b1110 N
b11 1
b11 ?
b11 3
18
#480
0"
0-
08
#490
18
#500
08
#510
18
#520
08
#530
18
#540
08
#550
18
#560
1"
1-
08
#570
b100111 F
0C
b1 /
b11 )
b11 T
b11 f
b10 $
b10 X
b10 k
b10 m
1p
b100111 M
b1101 N
b0 1
b0 ?
07
b101000 L
04
18
#580
08
#590
b100110 F
1C
b1000010010101010101001101011001 K
b1 0
b100 )
b100 T
b100 f
b1 %
b1 W
b1 j
b11 $
b11 X
b11 k
b11 m
b10 ,
b10 R
b100 1
b100 ?
17
b100111 L
b100 3
14
18
#600
08
#610
b100101 F
b10100110100010101010001 K
b0 0
b0 /
b11 %
b11 W
b11 j
b0 $
b0 X
b0 k
0p
b100110 M
b1100 N
b11 ,
b11 R
b101 1
b101 ?
b101 3
18
#620
08
#630
b100101 F
0C
b101 )
b101 T
b101 f
b100 $
b100 X
b100 k
b100 m
1p
b100101 M
b1011 N
b0 1
b0 ?
07
b100110 L
04
18
#640
0"
0-
08
#650
18
#660
1"
1-
08
#670
b100100 F
1C
b1000010010101010101001101011001 K
b1 0
b110 )
b110 T
b110 f
b1 %
b1 W
b1 j
b101 $
b101 X
b101 k
b101 m
b100 ,
b100 R
b110 1
b110 ?
17
b100101 L
b110 3
14
18
#680
08
#690
b100100 F
0C
b10100110100010101010001 K
b0 0
b11 %
b11 W
b11 j
b0 $
b0 X
b0 k
0p
b100100 M
b1010 N
b101 ,
b101 R
b0 1
b0 ?
07
04
18
#700
0"
0-
08
#710
18
#720
08
#730
18
#740
08
#750
18
#760
08
#770
18
#780
1"
1-
08
#790
b1000010010101010101001101011001 K
b1 /
b111 )
b111 T
b111 f
b1 %
b1 W
b1 j
b110 $
b110 X
b110 k
b110 m
1p
b100100 L
18
#800
0"
0-
08
#810
18
#820
1"
1-
08
#830
b100011 F
1C
b0 /
b0 $
b0 X
b0 k
0p
b110 ,
b110 R
b111 1
b111 ?
17
b111 3
14
18
#840
0"
0-
08
#850
18
#860
08
#870
18
#880
08
#890
18
#900
08
#910
18
#920
08
#930
18
#940
1"
1-
08
#950
b100010 F
b10100110100010101010001 K
b11 %
b11 W
b11 j
b100011 M
b1001 N
b1000 1
b1000 ?
b1000 3
18
#960
08
#970
b100001 F
b1 0
b1 /
b1000 )
b1000 T
b1000 f
b111 $
b111 X
b111 k
b111 m
1p
b100010 M
b1000 N
b1001 1
b1001 ?
b100011 L
b1001 3
18
#980
08
#990
b100001 F
0C
b0 0
b0 /
b1001 )
b1001 T
b1001 f
b1000 $
b1000 X
b1000 k
b1000 m
b111 ,
b111 R
b100001 M
b111 N
b0 1
b0 ?
07
b100010 L
04
18
#1000
0"
0-
08
#1010
18
#1020
1"
1-
08
#1030
b100000 F
1C
b1000010010101010101001101011001 K
b1 0
b1010 )
b1010 T
b1010 f
b1 %
b1 W
b1 j
b1001 $
b1001 X
b1001 k
b1001 m
b1000 ,
b1000 R
b1010 1
b1010 ?
17
b100001 L
b1010 3
14
18
#1040
08
#1050
b100000 F
0C
b10100110100010101010001 K
b0 0
b11 %
b11 W
b11 j
b0 $
b0 X
b0 k
0p
b100000 M
b110 N
b1001 ,
b1001 R
b0 1
b0 ?
07
04
18
#1060
0"
0-
08
#1070
18
#1080
1"
1-
08
#1090
b11111 F
1C
b1000010010101010101001101011001 K
b1 /
b1011 )
b1011 T
b1011 f
b1 %
b1 W
b1 j
b1010 $
b1010 X
b1010 k
b1010 m
1p
b1011 1
b1011 ?
17
b100000 L
b1011 3
14
18
#1100
0"
0-
08
#1110
18
#1120
1"
1-
08
#1130
b11110 F
b10100110100010101010001 K
b0 /
b11 %
b11 W
b11 j
b0 $
b0 X
b0 k
0p
b11111 M
b101 N
b1010 ,
b1010 R
b1100 1
b1100 ?
b1100 3
18
#1140
0"
0-
08
#1150
18
#1160
1"
1-
08
#1170
b11101 F
b1 0
b1 /
b1100 )
b1100 T
b1100 f
b1011 $
b1011 X
b1011 k
b1011 m
1p
b11110 M
b100 N
b1101 1
b1101 ?
b11111 L
b1101 3
18
#1180
08
#1190
b11101 F
0C
b0 0
b0 /
b1101 )
b1101 T
b1101 f
b1100 $
b1100 X
b1100 k
b1100 m
b1011 ,
b1011 R
b11101 M
b11 N
b0 1
b0 ?
07
b11110 L
04
18
#1200
08
#1210
b11100 F
1C
b1000010010101010101001101011001 K
b1 0
b1110 )
b1110 T
b1110 f
b1 %
b1 W
b1 j
b1101 $
b1101 X
b1101 k
b1101 m
b1100 ,
b1100 R
b1110 1
b1110 ?
17
b11101 L
b1110 3
14
18
#1220
0"
0-
08
#1230
18
#1240
08
#1250
18
#1260
08
#1270
18
#1280
08
#1290
18
#1300
1"
1-
08
#1310
b11011 F
b10100110100010101010001 K
b0 0
b11 %
b11 W
b11 j
b0 $
b0 X
b0 k
0p
b1101 ,
b1101 R
b11100 M
b10 N
b1111 1
b1111 ?
b1111 3
18
#1320
0"
0-
08
#1330
18
#1340
08
#1350
18
#1360
1"
1-
08
#1370
b11010 F
b1 /
b1111 )
b1111 T
b1111 f
b1110 $
b1110 X
b1110 k
b1110 m
1p
b11011 M
b1 N
b10000 1
b10000 ?
b11100 L
b10000 3
18
#1380
08
#1390
b11001 F
b10011100100111101001110010100110100010101010001 K
b1 0
b10000 )
b10000 T
b10000 f
b10 %
b10 W
b10 j
b1111 $
b1111 X
b1111 k
b1111 m
b1110 ,
b1110 R
b11010 M
b10000 N
b10001 1
b10001 ?
b11011 L
b11010 ]
b10000 Z
b10000 b
b11011 a
b10000 ^
b10001 3
18
#1400
08
#1410
b11001 F
0C
b10100110100010101010001 K
b0 0
b0 /
b10001 )
b10001 T
b10001 f
b11 %
b11 W
b11 j
b10000 $
b10000 X
b10000 k
b10000 m
b11001 M
b1111 N
b1111 ,
b1111 R
b0 1
b0 ?
07
b11010 L
04
18
#1420
08
#1430
b11000 F
1C
b1000010010101010101001101011001 K
b1 0
b10010 )
b10010 T
b10010 f
b1 %
b1 W
b1 j
b10001 $
b10001 X
b10001 k
b10001 m
b10000 ,
b10000 R
b10010 1
b10010 ?
17
b11001 L
b10010 3
14
18
#1440
08
#1450
b11000 F
0C
b10100110100010101010001 K
b0 0
b11 %
b11 W
b11 j
b0 $
b0 X
b0 k
0p
b11000 M
b1110 N
b10001 ,
b10001 R
b0 1
b0 ?
07
04
18
#1460
0"
0-
08
#1470
18
#1480
08
#1490
18
#1500
08
#1510
18
#1520
08
#1530
18
#1540
08
#1550
18
#1560
08
#1570
18
#1580
1"
1-
08
#1590
b10111 F
1C
b1000010010101010101001101011001 K
b1 /
b10011 )
b10011 T
b10011 f
b1 %
b1 W
b1 j
b10010 $
b10010 X
b10010 k
b10010 m
1p
b10011 1
b10011 ?
17
b11000 L
b10011 3
14
18
#1600
08
#1610
b10110 F
b10100110100010101010001 K
b0 /
b11 %
b11 W
b11 j
b0 $
b0 X
b0 k
0p
b10111 M
b1101 N
b10010 ,
b10010 R
b10100 1
b10100 ?
b10100 3
18
#1620
08
#1630
b10110 F
0C
b1 0
b1 /
b10100 )
b10100 T
b10100 f
b10011 $
b10011 X
b10011 k
b10011 m
1p
b10110 M
b1100 N
b0 1
b0 ?
07
b10111 L
04
18
#1640
08
#1650
b10101 F
1C
b1000010010101010101001101011001 K
b0 0
b0 /
b10101 )
b10101 T
b10101 f
b1 %
b1 W
b1 j
b10100 $
b10100 X
b10100 k
b10100 m
b10011 ,
b10011 R
b10101 1
b10101 ?
17
b10110 L
b10101 3
14
18
#1660
0"
0-
08
#1670
18
#1680
08
#1690
18
#1700
1"
1-
08
#1710
b10100 F
b10100110100010101010001 K
b11 %
b11 W
b11 j
b0 $
b0 X
b0 k
0p
b10100 ,
b10100 R
b10101 M
b1011 N
b10110 1
b10110 ?
b10110 3
18
#1720
0"
0-
08
#1730
18
#1740
1"
1-
08
#1750
b10011 F
b1 0
b10110 )
b10110 T
b10110 f
b10101 $
b10101 X
b10101 k
b10101 m
1p
b10100 M
b1010 N
b10111 1
b10111 ?
b10101 L
b10111 3
18
#1760
08
#1770
b10010 F
b0 0
b1 /
b10111 )
b10111 T
b10111 f
b10110 $
b10110 X
b10110 k
b10110 m
b10011 M
b1001 N
b10101 ,
b10101 R
b11000 1
b11000 ?
b10100 L
b11000 3
18
#1780
0"
0-
08
#1790
18
#1800
08
#1810
18
#1820
08
#1830
18
#1840
1"
1-
08
#1850
b10010 F
0C
b1 0
b11000 )
b11000 T
b11000 f
b10111 $
b10111 X
b10111 k
b10111 m
b10010 M
b1000 N
b10110 ,
b10110 R
b0 1
b0 ?
07
b10011 L
04
18
#1860
0"
0-
08
#1870
18
#1880
08
#1890
18
#1900
1"
1-
08
#1910
b10001 F
1C
b1000010010101010101001101011001 K
b0 0
b0 /
b11001 )
b11001 T
b11001 f
b1 %
b1 W
b1 j
b11000 $
b11000 X
b11000 k
b11000 m
b10111 ,
b10111 R
b11001 1
b11001 ?
17
b10010 L
b11001 3
14
18
#1920
0"
0-
08
#1930
18
#1940
08
#1950
18
#1960
1"
1-
08
#1970
b10001 F
0C
b10100110100010101010001 K
b11 %
b11 W
b11 j
b0 $
b0 X
b0 k
0p
b10001 M
b111 N
b11000 ,
b11000 R
b0 1
b0 ?
07
04
18
#1980
0"
0-
08
#1990
18
#2000
08
#2010
18
#2020
1"
1-
08
#2030
b1000010010101010101001101011001 K
b1 0
b11010 )
b11010 T
b11010 f
b1 %
b1 W
b1 j
b11001 $
b11001 X
b11001 k
b11001 m
1p
b10001 L
18
#2040
0"
0-
08
#2050
18
#2060
1"
1-
08
#2070
b0 0
b0 $
b0 X
b0 k
0p
b11001 ,
b11001 R
18
#2080
08
#2090
b10000 F
1C
b11010 1
b11010 ?
17
b11010 3
14
18
#2100
08
#2110
b1111 F
b10100110100010101010001 K
b11 %
b11 W
b11 j
b10000 M
b110 N
b11011 1
b11011 ?
b11011 3
18
#2120
08
#2130
b1111 F
0C
b1 /
b11011 )
b11011 T
b11011 f
b11010 $
b11010 X
b11010 k
b11010 m
1p
b1111 M
b101 N
b0 1
b0 ?
07
b10000 L
04
18
#2140
0"
0-
08
#2150
18
#2160
08
#2170
18
#2180
1"
1-
08
#2190
b1000010010101010101001101011001 K
b1 0
b11100 )
b11100 T
b11100 f
b1 %
b1 W
b1 j
b11011 $
b11011 X
b11011 k
b11011 m
b11010 ,
b11010 R
b1111 L
18
#2200
0"
0-
08
#2210
18
#2220
1"
1-
08
#2230
b1110 F
1C
b0 0
b0 /
b0 $
b0 X
b0 k
0p
b11011 ,
b11011 R
b11100 1
b11100 ?
17
b11100 3
14
18
#2240
0"
0-
08
#2250
18
#2260
08
#2270
18
#2280
08
#2290
18
#2300
1"
1-
08
#2310
b1101 F
b10100110100010101010001 K
b11 %
b11 W
b11 j
b1110 M
b100 N
b11101 1
b11101 ?
b11101 3
18
#2320
0"
0-
08
#2330
18
#2340
08
#2350
18
#2360
08
#2370
18
#2380
1"
1-
08
#2390
b1100 F
b11101 )
b11101 T
b11101 f
b11100 $
b11100 X
b11100 k
b11100 m
1p
b1101 M
b11 N
b11110 1
b11110 ?
b1110 L
b11110 3
18
#2400
0"
0-
08
#2410
18
#2420
08
#2430
18
#2440
08
#2450
18
#2460
1"
1-
08
#2470
b1100 F
0C
b1 0
b11110 )
b11110 T
b11110 f
b11101 $
b11101 X
b11101 k
b11101 m
b11100 ,
b11100 R
b1100 M
b10 N
b0 1
b0 ?
07
b1101 L
04
18
#2480
0"
0-
08
#2490
18
#2500
1"
1-
08
#2510
b1000010010101010101001101011001 K
b0 0
b1 /
b11111 )
b11111 T
b11111 f
b1 %
b1 W
b1 j
b11110 $
b11110 X
b11110 k
b11110 m
b11101 ,
b11101 R
b1100 L
18
#2520
0"
0-
08
#2530
18
#2540
08
#2550
18
#2560
1"
1-
08
#2570
b0 /
b0 $
b0 X
b0 k
0p
b11110 ,
b11110 R
18
#2580
08
#2590
b1011 F
1C
b11111 1
b11111 ?
17
b11111 3
14
18
#2600
0"
0-
08
#2610
18
#2620
08
#2630
18
#2640
08
#2650
18
#2660
08
#2670
18
#2680
1"
1-
08
#2690
b1011 F
b10100110100010101010001 K
0C
b11 %
b11 W
b11 j
b1011 M
b1 N
b0 1
b0 ?
07
04
18
#2700
0"
0-
08
#2710
18
#2720
08
#2730
18
#2740
08
#2750
18
#2760
1"
1-
08
#2770
b1010 F
1C
b1001001010001000100110001000101 K
b100100101001110010000110101001000111000 H
b1 0
b1 /
b101 (
b101 U
b101 g
b0 %
b0 W
b0 j
b11111 $
b11111 X
b11111 k
b11111 m
1p
b1000 N
b101 P
b100000 1
b100000 ?
17
b1011 L
b1000 [
b1011 ]
b11111 Z
b101 _
b111 e
b11111 b
b1011 a
b11111 ^
b100000 3
14
18
#2780
08
#2790
b1010 F
0C
b10011100100111101001110010100110100010101010001 K
b0 0
b0 /
b100000 )
b100000 T
b100000 f
b10 %
b10 W
b10 j
b0 $
b0 X
b0 k
0p
b11111 ,
b11111 R
b1010 M
b0 1
b0 ?
07
b1010 ]
b100000 Z
b100000 b
b111 e
b100000 ^
04
18
#2800
08
#2810
b1001 F
1C
b1000010010101010101001101011001 K
b100001 )
b100001 T
b100001 f
b1 %
b1 W
b1 j
b100000 $
b100000 X
b100000 k
b100000 m
1p
b100001 1
b100001 ?
17
b1010 L
b100001 3
14
18
#2820
08
#2830
b1001 F
0C
b10100110100010101010001 K
b11 %
b11 W
b11 j
b0 $
b0 X
b0 k
0p
b100000 ,
b100000 R
b1001 M
b111 N
b0 1
b0 ?
07
04
18
#2840
0"
0-
08
#2850
18
#2860
1"
1-
08
#2870
b1000 F
1C
b1000010010101010101001101011001 K
b1 0
b100010 )
b100010 T
b100010 f
b1 %
b1 W
b1 j
b100001 $
b100001 X
b100001 k
b100001 m
1p
b100010 1
b100010 ?
17
b1001 L
b100010 3
14
18
#2880
08
#2890
b111 F
b10100110100010101010001 K
b0 0
b11 %
b11 W
b11 j
b0 $
b0 X
b0 k
0p
b1000 M
b110 N
b100001 ,
b100001 R
b100011 1
b100011 ?
b100011 3
18
#2900
08
#2910
b111 F
0C
b1 /
b100011 )
b100011 T
b100011 f
b100010 $
b100010 X
b100010 k
b100010 m
1p
b111 M
b101 N
b0 1
b0 ?
07
b1000 L
04
18
#2920
08
#2930
b110 F
1C
b1000010010101010101001101011001 K
b1 0
b100100 )
b100100 T
b100100 f
b1 %
b1 W
b1 j
b100011 $
b100011 X
b100011 k
b100011 m
b100010 ,
b100010 R
b100100 1
b100100 ?
17
b111 L
b100100 3
14
18
#2940
0"
0-
08
#2950
18
#2960
08
#2970
18
#2980
08
#2990
18
#3000
08
#3010
18
#3020
1"
1-
08
#3030
b101 F
b10100110100010101010001 K
b0 0
b0 /
b11 %
b11 W
b11 j
b0 $
b0 X
b0 k
0p
b100011 ,
b100011 R
b110 M
b100 N
b100101 1
b100101 ?
b100101 3
18
#3040
0"
0-
08
#3050
18
#3060
08
#3070
18
#3080
1"
1-
08
#3090
b101 F
0C
b100101 )
b100101 T
b100101 f
b100100 $
b100100 X
b100100 k
b100100 m
1p
b101 M
b11 N
b0 1
b0 ?
07
b110 L
04
18
#3100
0"
0-
08
#3110
18
#3120
1"
1-
08
#3130
b1000010010101010101001101011001 K
b1 0
b100110 )
b100110 T
b100110 f
b1 %
b1 W
b1 j
b100101 $
b100101 X
b100101 k
b100101 m
b100100 ,
b100100 R
b101 L
18
#3140
0"
0-
08
#3150
18
#3160
1"
1-
08
#3170
b0 0
b0 $
b0 X
b0 k
0p
b100101 ,
b100101 R
18
#3180
0"
0-
08
#3190
18
#3200
1"
1-
08
#3210
b100 F
1C
b100110 1
b100110 ?
17
b100110 3
14
18
#3220
08
#3230
b100 F
b10100110100010101010001 K
0C
b11 %
b11 W
b11 j
b100 M
b10 N
b0 1
b0 ?
07
04
18
#3240
0"
0-
08
#3250
18
#3260
08
#3270
18
#3280
1"
1-
08
#3290
b1000010010101010101001101011001 K
b1 /
b100111 )
b100111 T
b100111 f
b1 %
b1 W
b1 j
b100110 $
b100110 X
b100110 k
b100110 m
1p
b100 L
18
#3300
0"
0-
08
#3310
18
#3320
1"
1-
08
#3330
b0 /
b0 $
b0 X
b0 k
0p
b100110 ,
b100110 R
18
#3340
0"
0-
08
#3350
18
#3360
08
#3370
18
#3380
08
#3390
18
#3400
1"
1-
08
#3410
18
#3420
0"
0-
08
#3430
18
#3440
08
#3450
18
#3460
1"
1-
08
#3470
b11 F
1C
b100111 1
b100111 ?
17
b100111 3
14
18
#3480
0"
0-
08
#3490
18
#3500
1"
1-
08
#3510
b10 F
b10100110100010101010001 K
b11 %
b11 W
b11 j
b11 M
b1 N
b101000 1
b101000 ?
b101000 3
18
#3520
08
#3530
b10011100100111101001110010100110100010101010001 K
b1001001010011100100001101010010 H
b1 0
b1 /
b101000 )
b101000 T
b101000 f
b1 (
b1 U
b1 g
b10 %
b10 W
b10 j
b100111 $
b100111 X
b100111 k
b100111 m
1p
b10 M
b0 N
b1 P
b101001 1
b101001 ?
b11 L
b0 [
b10 ]
b101000 Z
b1 _
b101000 b
b11 e
b11 a
b101000 ^
b101001 3
18
#3540
0"
0-
08
#3550
18
#3560
1"
1-
08
#3570
b10100110100010101010001 K
b0 0
b0 /
b101001 )
b101001 T
b101001 f
b11 %
b11 W
b11 j
b101000 $
b101000 X
b101000 k
b101000 m
b100111 ,
b100111 R
b101010 1
b101010 ?
b10 L
b101010 3
18
#3580
08
#3590
0C
b1 0
b101010 )
b101010 T
b101010 f
b101001 $
b101001 X
b101001 k
b101001 m
b101000 ,
b101000 R
b0 1
b0 ?
07
04
18
#3600
0"
0-
08
#3610
18
#3620
1"
1-
08
#3630
b1000010010101010101001101011001 K
b0 0
b1 /
b101011 )
b101011 T
b101011 f
b1 %
b1 W
b1 j
b101010 $
b101010 X
b101010 k
b101010 m
b101001 ,
b101001 R
18
#3640
0"
0-
08
#3650
18
#3660
1"
1-
08
#3670
1C
b0 /
b0 $
b0 X
b0 k
0p
b101010 ,
b101010 R
b101011 1
b101011 ?
17
b101011 3
14
18
#3680
0"
0-
08
#3690
18
#3700
08
#3710
18
#3720
1"
1-
08
#3730
b10100110100010101010001 K
0C
b11 %
b11 W
b11 j
b0 1
b0 ?
07
04
18
#3740
0"
0-
08
#3750
18
#3760
1"
1-
08
#3770
b1000010010101010101001101011001 K
b1 0
b1 /
b101100 )
b101100 T
b101100 f
b1 %
b1 W
b1 j
b101011 $
b101011 X
b101011 k
b101011 m
1p
18
#3780
08
#3790
1C
b0 0
b0 /
b0 $
b0 X
b0 k
0p
b101011 ,
b101011 R
b101100 1
b101100 ?
17
b101100 3
14
18
#3800
0"
0-
08
#3810
18
#3820
1"
1-
08
#3830
b10100110100010101010001 K
0C
b11 %
b11 W
b11 j
b0 1
b0 ?
07
04
18
#3840
08
#3850
b1000010010101010101001101011001 K
b101101 )
b101101 T
b101101 f
b1 %
b1 W
b1 j
b101100 $
b101100 X
b101100 k
b101100 m
1p
18
#3860
0"
0-
08
#3870
18
#3880
1"
1-
08
#3890
b0 $
b0 X
b0 k
0p
b101100 ,
b101100 R
18
#3900
0"
0-
08
#3910
18
#3920
08
#3930
18
#3940
1"
1-
08
#3950
1C
b101101 1
b101101 ?
17
b101101 3
14
18
#3960
08
#3970
b10100110100010101010001 K
b11 %
b11 W
b11 j
b101110 1
b101110 ?
b101110 3
18
#3980
08
#3990
0C
b1 0
b101110 )
b101110 T
b101110 f
b101101 $
b101101 X
b101101 k
b101101 m
1p
b0 1
b0 ?
07
04
18
#4000
08
#4010
1C
b1000010010101010101001101011001 K
b0 0
b1 /
b101111 )
b101111 T
b101111 f
b1 %
b1 W
b1 j
b101110 $
b101110 X
b101110 k
b101110 m
b101101 ,
b101101 R
b101111 1
b101111 ?
17
b101111 3
14
18
#4020
08
#4030
0C
b10100110100010101010001 K
b0 /
b11 %
b11 W
b11 j
b0 $
b0 X
b0 k
0p
b101110 ,
b101110 R
b0 1
b0 ?
07
04
18
#4040
0"
0-
08
#4050
18
#4060
08
#4070
18
#4080
08
#4090
18
#4100
08
#4110
18
#4120
08
#4130
18
#4140
1"
1-
08
#4150
1C
b1000010010101010101001101011001 K
b1 0
b1 /
b110000 )
b110000 T
b110000 f
b1 %
b1 W
b1 j
b101111 $
b101111 X
b101111 k
b101111 m
1p
b110000 1
b110000 ?
17
b110000 3
14
18
#4160
08
#4170
b10100110100010101010001 K
b0 0
b0 /
b11 %
b11 W
b11 j
b0 $
b0 X
b0 k
0p
b101111 ,
b101111 R
b110001 1
b110001 ?
b110001 3
18
#4180
08
#4190
b110001 )
b110001 T
b110001 f
b110000 $
b110000 X
b110000 k
b110000 m
1p
b110010 1
b110010 ?
b110010 3
18
#4200
08
#4210
0C
b1 0
b110010 )
b110010 T
b110010 f
b110001 $
b110001 X
b110001 k
b110001 m
b110000 ,
b110000 R
b0 1
b0 ?
07
04
18
#4220
08
#4230
1C
b1000010010101010101001101011001 K
b0 0
b1 /
b110011 )
b110011 T
b110011 f
b1 %
b1 W
b1 j
b110010 $
b110010 X
b110010 k
b110010 m
b110001 ,
b110001 R
b110011 1
b110011 ?
17
b110011 3
14
18
#4240
08
#4250
b10100110100010101010001 K
b0 /
b11 %
b11 W
b11 j
b0 $
b0 X
b0 k
0p
b110010 ,
b110010 R
b110100 1
b110100 ?
b110100 3
18
#4260
08
#4270
b1 0
b1 /
b110100 )
b110100 T
b110100 f
b110011 $
b110011 X
b110011 k
b110011 m
1p
b110101 1
b110101 ?
b110101 3
18
#4280
08
#4290
b0 0
b0 /
b110101 )
b110101 T
b110101 f
b110100 $
b110100 X
b110100 k
b110100 m
b110011 ,
b110011 R
b110110 1
b110110 ?
b110110 3
18
#4300
0"
0-
08
#4310
18
#4320
08
#4330
18
#4340
1"
1-
08
#4350
b1 0
b110110 )
b110110 T
b110110 f
b110101 $
b110101 X
b110101 k
b110101 m
b110100 ,
b110100 R
b110111 1
b110111 ?
b110111 3
18
#4360
0"
0-
08
#4370
18
#4380
08
#4390
18
#4400
08
#4410
18
#4420
08
#4430
18
#4440
1"
1-
08
#4450
0C
b0 0
b1 /
b101010 F
b110111 )
b110111 T
b110111 f
b110110 $
b110110 X
b110110 k
b110110 m
b110101 ,
b110101 R
06
0=
18
#4460
0"
0-
08
#4470
0'
18
#4480
08
#4490
02
18
#4500
08
#4510
18
#4520
08
#4530
18
#4540
08
#4550
18
#4560
08
#4570
18
#4580
1-
08
#4590
b1 0
b110111 $
b110111 X
b110111 k
b110111 m
b110110 ,
b110110 R
b10 O
18
#4600
0-
08
#4610
18
#4620
08
#4630
18
#4640
1-
08
#4650
b0 O
b110111 ,
b110111 R
18
